// Jest Snapshot v1, https://goo.gl/fbAQLP

exports[`Test Footer Component and its content. >>>:  it should render the contract status legends 1`] = `ShallowWrapper {}`;

exports[`Test Footer Component and its content. >>>:  it should render the contract type legends 1`] = `ShallowWrapper {}`;

exports[`Test Footer Component and its content. >>>:  will be mounted:  1`] = `ShallowWrapper {}`;
